{
  "hash": "unique-hash-1",
  "name": "Graph data",
  "sourceDimensions": [],
  "sourceValues": [
    {
      "current": 10,
      "previous": 5,
      "suffix": "h",
      "prefix": null,
      "name": "Net revenue",
      "url": "http://test.com/1.html",
      "dimensions": null
    }
  ]
}